<?xml version="1.0" encoding="UTF-8" standalone="no"?>
<!DOCTYPE svg PUBLIC "-//W3C//DTD SVG 1.1//EN"
 "http://www.w3.org/Graphics/SVG/1.1/DTD/svg11.dtd">
<!-- Generated by graphviz version 2.43.0 (0)
 -->
<!-- Title: perceptron Pages: 1 -->
<svg width="594pt" height="370pt"
 viewBox="0.00 0.00 593.74 369.54" xmlns="http://www.w3.org/2000/svg" xmlns:xlink="http://www.w3.org/1999/xlink">
<g id="graph0" class="graph" transform="scale(1 1) rotate(0) translate(4 365.54)">
<title>perceptron</title>
<polygon fill="white" stroke="transparent" points="-4,4 -4,-365.54 589.74,-365.54 589.74,4 -4,4"/>
<!-- x_0 = 1.0 -->
<g id="node1" class="node">
<title>x_0 = 1.0</title>
<ellipse fill="none" stroke="darkblue" cx="45.5" cy="-316.05" rx="45.49" ry="45.49"/>
<text text-anchor="middle" x="45.5" y="-312.35" font-family="Times,serif" font-size="14.00">x_0 = 1.0</text>
</g>
<!-- sum(x * w) -->
<g id="node6" class="node">
<title>sum(x * w)</title>
<ellipse fill="none" stroke="darkblue" cx="265.99" cy="-162.05" rx="51.99" ry="51.99"/>
<text text-anchor="middle" x="265.99" y="-158.35" font-family="Times,serif" font-size="14.00">sum(x * w)</text>
</g>
<!-- x_0 = 1.0&#45;&gt;sum(x * w) -->
<g id="edge1" class="edge">
<title>x_0 = 1.0&#45;&gt;sum(x * w)</title>
<path fill="none" stroke="black" d="M86.4,-295.41C117.41,-278.65 160.91,-253.51 195.99,-227.05 204.64,-220.52 213.41,-213.05 221.66,-205.56"/>
<polygon fill="black" stroke="black" points="224.11,-208.06 229.07,-198.69 219.35,-202.92 224.11,-208.06"/>
<text text-anchor="middle" x="152.49" y="-285.85" font-family="Times,serif" font-size="14.00">w_0 = intercept</text>
</g>
<!-- x_1 -->
<g id="node2" class="node">
<title>x_1</title>
<ellipse fill="none" stroke="darkblue" cx="45.5" cy="-228.05" rx="24.1" ry="24.1"/>
<text text-anchor="middle" x="45.5" y="-224.35" font-family="Times,serif" font-size="14.00">x_1</text>
</g>
<!-- x_1&#45;&gt;sum(x * w) -->
<g id="edge2" class="edge">
<title>x_1&#45;&gt;sum(x * w)</title>
<path fill="none" stroke="black" d="M68.65,-221.36C100.59,-211.71 160.71,-193.55 206.05,-179.85"/>
<polygon fill="black" stroke="black" points="207.21,-183.16 215.77,-176.91 205.19,-176.46 207.21,-183.16"/>
<text text-anchor="middle" x="152.49" y="-211.85" font-family="Times,serif" font-size="14.00">w_1</text>
</g>
<!-- x_2 -->
<g id="node3" class="node">
<title>x_2</title>
<ellipse fill="none" stroke="darkblue" cx="45.5" cy="-162.05" rx="24.1" ry="24.1"/>
<text text-anchor="middle" x="45.5" y="-158.35" font-family="Times,serif" font-size="14.00">x_2</text>
</g>
<!-- x_2&#45;&gt;sum(x * w) -->
<g id="edge3" class="edge">
<title>x_2&#45;&gt;sum(x * w)</title>
<path fill="none" stroke="black" d="M69.88,-162.05C101.54,-162.05 159.19,-162.05 203.65,-162.05"/>
<polygon fill="black" stroke="black" points="203.78,-165.55 213.78,-162.05 203.78,-158.55 203.78,-165.55"/>
<text text-anchor="middle" x="152.49" y="-165.85" font-family="Times,serif" font-size="14.00">w_2</text>
</g>
<!-- x_... -->
<g id="node4" class="node">
<title>x_...</title>
<ellipse fill="none" stroke="darkblue" cx="45.5" cy="-93.05" rx="26.8" ry="26.8"/>
<text text-anchor="middle" x="45.5" y="-89.35" font-family="Times,serif" font-size="14.00">x_...</text>
</g>
<!-- x_...&#45;&gt;sum(x * w) -->
<g id="edge4" class="edge">
<title>x_...&#45;&gt;sum(x * w)</title>
<path fill="none" stroke="black" d="M71.13,-100.83C103.71,-111.12 162.16,-129.58 206.39,-143.54"/>
<polygon fill="black" stroke="black" points="205.57,-146.95 216.16,-146.63 207.68,-140.28 205.57,-146.95"/>
<text text-anchor="middle" x="152.49" y="-142.85" font-family="Times,serif" font-size="14.00">w_...</text>
</g>
<!-- x_n -->
<g id="node5" class="node">
<title>x_n</title>
<ellipse fill="none" stroke="darkblue" cx="45.5" cy="-24.05" rx="24.1" ry="24.1"/>
<text text-anchor="middle" x="45.5" y="-20.35" font-family="Times,serif" font-size="14.00">x_n</text>
</g>
<!-- x_n&#45;&gt;sum(x * w) -->
<g id="edge5" class="edge">
<title>x_n&#45;&gt;sum(x * w)</title>
<path fill="none" stroke="black" d="M68.52,-31.65C98.83,-42.7 154.36,-65.07 195.99,-94.05 205.39,-100.59 214.66,-108.46 223.22,-116.48"/>
<polygon fill="black" stroke="black" points="220.91,-119.12 230.54,-123.55 225.78,-114.09 220.91,-119.12"/>
<text text-anchor="middle" x="152.49" y="-97.85" font-family="Times,serif" font-size="14.00">w_n</text>
</g>
<!-- z &gt;
threshold -->
<g id="node7" class="node">
<title>z &gt;
threshold</title>
<ellipse fill="none" stroke="darkblue" cx="408.36" cy="-162.05" rx="47.25" ry="47.25"/>
<text text-anchor="middle" x="408.36" y="-165.85" font-family="Times,serif" font-size="14.00">z &gt;</text>
<text text-anchor="middle" x="408.36" y="-150.85" font-family="Times,serif" font-size="14.00">threshold</text>
</g>
<!-- sum(x * w)&#45;&gt;z &gt;
threshold -->
<g id="edge6" class="edge">
<title>sum(x * w)&#45;&gt;z &gt;
threshold</title>
<path fill="none" stroke="black" d="M318.06,-162.05C328.64,-162.05 339.84,-162.05 350.6,-162.05"/>
<polygon fill="black" stroke="black" points="350.75,-165.55 360.75,-162.05 350.75,-158.55 350.75,-165.55"/>
<text text-anchor="middle" x="339.48" y="-165.85" font-family="Times,serif" font-size="14.00">z</text>
</g>
<!--   -->
<g id="node8" class="node">
<title> </title>
<ellipse fill="none" stroke="darkblue" cx="567.74" cy="-162.05" rx="18" ry="18"/>
<text text-anchor="middle" x="567.74" y="-158.35" font-family="Times,serif" font-size="14.00"> </text>
</g>
<!-- z &gt;
threshold&#45;&gt;  -->
<g id="edge7" class="edge">
<title>z &gt;
threshold&#45;&gt; </title>
<path fill="none" stroke="black" d="M456.15,-162.05C483.37,-162.05 516.72,-162.05 539.63,-162.05"/>
<polygon fill="black" stroke="black" points="539.67,-165.55 549.67,-162.05 539.67,-158.55 539.67,-165.55"/>
<text text-anchor="middle" x="502.74" y="-165.85" font-family="Times,serif" font-size="14.00">y = output</text>
</g>
</g>
</svg>
